Simula delineamento de blocos incompletos — bloco_incompleto • planejamento
…
bloco_incompleto(4, 6, 2)

#> $dados
#> # A tibble: 24 x 3
#>    Trat  resultado bloco
#>    <fct>     <dbl> <fct>
#>  1 1         1.18  B1   
#>  2 2        -2.65  B1   
#>  3 3        NA     B1   
#>  4 4        NA     B1   
#>  5 1        NA     B2   
#>  6 2         1.01  B2   
#>  7 3        -1.77  B2   
#>  8 4        NA     B2   
#>  9 1        -0.826 B3   
#> 10 2        NA     B3   
#> # … with 14 more rows
…
